<?xml version="1.0" encoding="utf-8"?>
<!-- Generator: Adobe Illustrator 15.0.0, SVG Export Plug-In . SVG Version: 6.00 Build 0)  -->
<!DOCTYPE svg PUBLIC "-//W3C//DTD SVG 1.1//EN" "http://www.w3.org/Graphics/SVG/1.1/DTD/svg11.dtd">
<svg version="1.1" id="Layer_1" xmlns="http://www.w3.org/2000/svg" xmlns:xlink="http://www.w3.org/1999/xlink" x="0px" y="0px"
	 width="800px" height="315.667px" viewBox="0 141.934 800 315.667" enable-background="new 0 141.934 800 315.667"
	 xml:space="preserve">
<polygon fill="#FFFFFF" points="74.486,427.896 74.486,430.695 84.969,430.695 84.969,457.602 87.939,457.602 87.939,430.695 
	98.423,430.695 98.423,427.896 "/>
<path fill="#FFFFFF" d="M203.97,457.602h-3.863l-9.844-10.948h-7.682v10.948h-2.97v-29.704h13.327c6.618,0,9.802,4.41,9.844,9.419
	c0.044,4.624-2.675,8.825-8.953,9.124L203.97,457.602z M182.581,430.695v13.154h10.186c4.753,0,7.045-2.799,7.045-6.534
	c0-3.733-2.292-6.62-6.874-6.62H182.581L182.581,430.695z"/>
<path fill="#FFFFFF" d="M306.25,450.728h-17.228l-3.055,6.874h-3.141l13.327-29.704h2.969l13.327,29.704h-3.141L306.25,450.728z
	 M290.208,448.012h14.854l-7.428-16.896L290.208,448.012z"/>
<polygon fill="#FFFFFF" points="404.581,457.685 401.27,457.685 388.627,427.896 391.895,427.896 402.93,454.42 413.791,427.896 
	417.103,427.896 "/>
<polygon fill="#FFFFFF" points="520.02,457.602 498.713,457.602 498.713,427.896 519.64,427.896 519.64,430.695 501.686,430.695 
	501.686,441.347 518.831,441.347 518.831,444.107 501.686,444.107 501.686,454.8 520.02,454.8 "/>
<polygon fill="#FFFFFF" points="605.877,427.896 605.877,454.8 622.385,454.8 622.385,457.602 602.904,457.602 602.904,427.896 "/>
<path fill="#FFFFFF" d="M722.161,434.007c-1.739-2.802-5.392-3.735-8.534-3.776c-3.645,0-8.36,1.062-8.36,5.432
	c0,3.481,3.822,4.415,8.446,5.223c5.859,1.021,11.799,2.333,11.799,8.658c-0.042,6.703-6.49,8.531-11.885,8.531
	c-5.002,0-10.098-1.825-12.386-6.576l2.586-1.4c2.035,3.818,6.196,5.135,9.8,5.135c3.65,0,8.873-0.977,8.873-5.729
	c0.045-4.031-4.458-5.049-9.079-5.854c-5.604-0.977-11.121-2.208-11.121-7.979c-0.085-6.237,6.281-8.229,11.289-8.229
	c4.075,0,8.445,1.103,11.076,5.175L722.161,434.007z"/>
<path fill="#28A5DE" d="M32.218,290.034c5.918,0,8.876,2.41,8.876,7.231c0,3.618-2.74,6.355-8.219,8.219
	c-9.425,3.396-14.135,9.479-14.135,18.246c0,7.016,2.737,12.49,8.216,16.438c4.71,3.285,10.685,4.931,17.918,4.931
	c14.465,0,27.122-4.217,37.968-12.656c6.794-5.367,10.194-12.162,10.194-20.382c0-5.039-0.988-9.586-2.96-13.645
	c-2.082-4.161-5.261-9.425-9.534-15.78c-6.573-9.861-12.108-18.844-16.6-26.954c-5.042-8.986-7.561-17.806-7.561-26.467
	c0-20.49,10.133-39.667,30.407-57.529c10.737-9.313,22.574-16.875,35.506-22.684c10.737-4.709,21.094-7.068,31.064-7.068
	c6.461,0,11.94,1.698,16.435,5.096c5.479,4.055,8.219,9.59,8.219,16.603c0,10.958-5.916,22.792-17.753,35.503
	c-11.177,11.946-24.217,21.699-39.119,29.26c-7.455,3.725-13.096,5.588-16.93,5.588c-2.521,0-4.769-1.041-6.741-3.123
	c-1.313-1.424-1.973-3.014-1.973-4.769c0-4.052,3.619-7.34,10.85-9.861c13.259-4.709,24.984-11.342,35.176-19.888
	c13.149-10.956,19.726-20.545,19.726-28.764c0-3.179-1.315-5.757-3.946-7.729c-2.082-1.531-4.547-2.3-7.396-2.3
	c-7.561,0-17.042,2.908-28.437,8.711c-15.344,7.782-27.396,17.809-36.164,30.083c-7.67,10.628-11.504,20.985-11.504,31.068
	c0,7.34,2.026,14.901,6.081,22.681c3.395,6.246,7.727,13.314,12.984,21.206c5.04,7.559,9.316,14.574,12.825,21.038
	c4.052,7.67,6.081,14.852,6.081,21.533c0,12.932-7.399,24.383-22.191,34.348c-12.604,8.334-26.851,12.495-42.737,12.495
	c-15.674,0-27.945-4.327-36.818-12.988C3.344,341.151,0,333.591,0,325.044c0-9.534,3.182-17.531,9.534-23.999
	c3.833-3.945,8.384-6.903,13.645-8.873C26.792,290.745,29.803,290.034,32.218,290.034"/>
<path fill="#28A5DE" d="M170.125,286.25c8.11-8.437,16.216-15.506,24.329-21.204c10.407-7.234,17.859-10.849,22.354-10.849
	c1.861,0,3.668,0.77,5.423,2.3c1.973,1.754,2.958,3.78,2.958,6.083c0,2.958-2.356,7.559-7.066,13.804
	c-9.097,12.056-16.001,23.014-20.71,32.876c-4.167,8.546-6.246,14.358-6.246,17.422c0,2.961,1.421,4.441,4.273,4.441
	c5.916,0,15.886-10.52,29.915-31.56c2.849-4.276,5.423-6.411,7.727-6.411c2.3,0,3.453,1.315,3.453,3.946
	c0,4.273-4.167,12.433-12.495,24.488c-7.231,10.521-14.792,18.576-22.684,24.161c-5.588,3.84-10.628,5.754-15.123,5.754
	c-4.712,0-8.11-2.029-10.189-6.084c-1.315-2.519-1.973-5.314-1.973-8.384c0-9.753,3.45-20.873,10.354-33.365
	c1.646-2.961,6.576-11.395,14.795-25.314c-22.356,11.289-41.259,35.671-56.709,73.147c-1.424,4.272-3.616,6.411-6.577,6.411
	c-2.079,0-3.777-0.711-5.093-2.139c-1.315-1.533-1.973-3.395-1.973-5.592c0-3.614,3.506-13.859,10.519-30.736
	c13.041-31.339,25.202-57.859,36.491-79.558c11.286-21.911,23.834-44.651,37.641-68.213c3.288-5.694,5.862-9.534,7.726-11.507
	c1.861-1.97,3.834-2.958,5.916-2.958c1.973,0,3.671,1.044,5.096,3.123c1.094,1.537,1.643,3.288,1.643,5.261
	c0,3.07-1.752,7.178-5.258,12.33c-11.834,18.302-23.616,38.408-35.341,60.325C180.697,261.706,172.973,277.707,170.125,286.25"/>
<path fill="#28A5DE" d="M298.828,247.462c8.985,0,13.479,5.479,13.479,16.435c0,14.574-6.738,33.041-20.218,55.394
	c-14.686,24.22-28.874,36.325-42.572,36.325c-6.355,0-11.011-2.957-13.972-8.876c-1.533-2.961-2.3-6.521-2.3-10.686
	c0-14.024,4.822-29.26,14.465-45.694c8.983-15.234,19.561-27.066,31.726-35.509C286.554,249.928,293.021,247.462,298.828,247.462
	 M281.735,309.595c-2.742-2.19-4.111-3.89-4.111-5.099c0-0.873,1.752-3.285,5.261-7.231c9.861-11.067,14.792-19.997,14.792-26.794
	c0-0.873-0.274-1.749-0.82-2.627c-0.879-1.643-2.247-2.465-4.111-2.465c-3.509,0-8.658,3.397-15.45,10.192
	c-8.771,8.77-15.453,17.809-20.053,27.119c-5.37,10.632-8.057,19.454-8.057,26.468c0,1.862,0.496,3.506,1.48,4.931
	c1.424,1.973,3.232,2.958,5.426,2.958c5.258,0,10.899-3.946,16.93-11.835c2.627-3.288,4.765-6.685,6.411-10.191
	C281.078,311.512,281.844,309.704,281.735,309.595"/>
<path fill="#28A5DE" d="M343.375,299.4c10.737-11.504,23.12-22.737,37.148-33.698c5.04-3.946,10.407-7.614,16.107-11.011
	c2.849-1.646,4.659-2.466,5.423-2.466c1.646,0,3.288,1.207,4.935,3.616c0.984,1.315,1.478,2.521,1.478,3.616
	c0,1.973-2.082,4.659-6.246,8.057c-11.176,8.873-16.765,15.562-16.765,20.05c0,2.524,1.421,3.784,4.273,3.784
	c4.709,0,12.822-3.89,24.326-11.669c1.977-1.318,3.621-1.973,4.938-1.973c0.876,0,1.749,0.437,2.628,1.313
	c0.987,0.988,1.479,2.029,1.479,3.123c0,3.288-4.6,8.331-13.807,15.122c-9.646,7.234-18.794,10.85-27.449,10.85
	c-3.509,0-6.742-0.93-9.699-2.794c-2.521-1.535-3.781-4.272-3.781-8.218c0-2.74,1.15-5.862,3.453-9.372
	c-8.658,6.14-18.85,16.659-30.575,31.56c-6.794,9.204-13.533,20.549-20.218,34.025c-2.519,5.04-5.641,7.559-9.369,7.559
	c-4.052,0-6.081-1.914-6.081-5.748c0-3.73,3.179-13.701,9.534-29.92c9.422-24.108,19.287-42.793,29.587-56.052
	c6.355-8.219,11.669-12.33,15.945-12.33c1.421,0,2.737,0.442,3.943,1.318c1.424,1.097,2.138,2.465,2.138,4.108
	s-1.097,3.946-3.288,6.904c-0.439,0.551-3.344,4.22-8.711,11.014C349.786,286.637,346.005,293.051,343.375,299.4"/>
<path fill="#28A5DE" d="M429.173,321.918v2.961c0,2.409,0.604,4.491,1.812,6.246c2.736,4.055,7.23,6.081,13.479,6.081
	c13.694,0,29.528-10.521,47.496-31.558c3.179-3.615,5.862-5.426,8.057-5.426c1.206,0,2.301,0.604,3.288,1.811
	c0.657,0.876,0.985,1.695,0.985,2.463c0,4.271-5.262,11.507-15.783,21.695c-8.219,8.001-16.985,14.522-26.299,19.561
	c-9.316,5.043-17.975,7.563-25.973,7.563c-8.22,0-14.684-2.85-19.396-8.547c-3.176-3.945-4.766-9.311-4.766-16.109
	c0-18.516,8.712-36.656,26.135-54.406c14.137-14.465,26.464-21.699,36.983-21.699c2.849,0,5.426,0.879,7.726,2.63
	c2.849,2.3,4.273,5.317,4.273,9.042c0,5.81-2.688,12.932-8.055,21.366C468.076,303.127,451.417,315.239,429.173,321.918
	 M432.794,309.1c7.671-2.631,13.698-5.588,18.081-8.876c7.667-5.918,13.751-12.598,18.245-20.053
	c1.646-2.627,2.465-4.984,2.465-7.066c0-2.191-1.041-3.288-3.123-3.288c-2.852,0-6.903,2.135-12.164,6.411
	C446.87,283.788,439.04,294.744,432.794,309.1"/>
<path fill="#28A5DE" d="M535.688,298.907c-3.284,8.55-5.75,15.453-7.396,20.711c-1.646,5.261-2.469,8.933-2.469,11.012
	c0,2.742,1.314,4.11,3.948,4.11c3.945,0,9.038-3.726,15.287-11.178c2.958-3.617,7.341-10.135,13.149-19.56
	c2.301-3.725,4.71-5.592,7.231-5.592c2.849,0,4.274,1.374,4.274,4.11c0,4.716-5.429,14.246-16.274,28.603
	c-11.288,15.014-21.756,22.519-31.396,22.519c-4.167,0-7.563-1.752-10.195-5.261c-1.859-2.519-2.792-5.589-2.792-9.204
	c0-6.137,1.863-14.63,5.592-25.477c3.725-10.854,9.26-24.052,16.603-39.616c18.845-39.558,38.078-72.156,57.691-97.801
	c15.671-20.599,28.654-30.899,38.956-30.899c3.287,0,5.972,1.256,8.054,3.778c2.19,2.521,3.288,5.426,3.288,8.711
	c0,15.343-13.7,40.873-41.098,76.6c-12.272,15.887-26.957,31.779-44.052,47.668C549.604,286.306,543.47,291.895,535.688,298.907
	 M547.359,272.773c22.793-19.505,43.174-44.161,61.145-73.97c9.313-15.45,13.973-25.694,13.973-30.737
	c0-2.409-1.044-3.615-3.122-3.615c-6.027,0-16.992,12-32.875,35.998C573.332,220.172,560.288,244.283,547.359,272.773"/>
<path fill="#28A5DE" d="M624.125,255.021c1.86,0,3.392,0.714,4.601,2.135c0.88,1.206,1.315,2.415,1.315,3.618
	c0,1.973-1.59,5.258-4.766,9.861c-11.398,17.644-19.506,32.166-24.326,43.561c-5.152,11.728-9.699,23.776-13.646,36.16
	c-1.752,5.481-4.49,8.219-8.219,8.219c-2.188,0-3.942-0.876-5.258-2.63c-1.206-1.422-1.805-2.958-1.805-4.604
	c0-3.288,3.503-14.244,10.516-32.873c5.482-14.683,14.353-30.902,26.627-48.658c3.945-5.804,6.906-9.696,8.879-11.669
	C620.011,256.062,622.043,255.021,624.125,255.021 M655.352,194.038c4.932,0,7.396,2.521,7.396,7.562
	c0,4.603-2.412,9.699-7.231,15.288c-4.603,5.367-9.038,8.054-13.313,8.054c-2.085,0-3.78-0.764-5.1-2.303
	c-1.313-1.421-1.973-3.176-1.973-5.258c0-5.261,2.901-10.849,8.711-16.768C648.118,196.232,651.955,194.038,655.352,194.038"/>
<path fill="#28A5DE" d="M655.845,297.1c1.421-1.315,2.792-2.63,4.113-3.946c22.899-22.353,38.24-33.533,46.02-33.533
	c4.272,0,6.411,2.359,6.411,7.068c0,3.288-1.917,7.178-5.751,11.672c-20.935,24.439-31.395,45.969-31.395,64.597
	c0,6.028,1.643,11.781,4.931,17.261c1.536,2.521,2.3,4.494,2.3,5.919c0,1.313-0.653,2.571-1.973,3.78
	c-1.425,1.534-3.123,2.301-5.096,2.301c-4.494,0-8.275-2.852-11.343-8.547c-2.957-5.367-4.438-11.89-4.438-19.561
	c0-14.795,5.588-31.175,16.765-49.151c-14.903,9.535-28.765,26.412-41.586,50.625c-3.288,5.81-6.792,8.708-10.52,8.708
	c-1.86,0-3.396-0.654-4.604-1.97c-1.536-1.533-2.3-3.503-2.3-5.915c0-5.919,6.738-21.425,20.218-46.521
	c7.234-13.586,12.93-23.448,17.097-29.587c4.161-6.025,7.724-9.039,10.681-9.039c1.422,0,2.796,0.654,4.111,1.973
	c1.536,1.534,2.3,3.288,2.3,5.261c0,2.409-1.589,5.862-4.765,10.354C662.421,285.54,658.693,291.624,655.845,297.1"/>
<path fill="#28A5DE" d="M724.883,321.918v2.961c0,2.409,0.603,4.491,1.81,6.246c2.735,4.055,7.229,6.081,13.479,6.081
	c13.695,0,29.528-10.521,47.499-31.558c3.177-3.615,5.86-5.426,8.054-5.426c1.206,0,2.302,0.604,3.288,1.811
	c0.658,0.876,0.985,1.695,0.985,2.463c0,4.271-5.261,11.507-15.783,21.695c-8.219,8.001-16.985,14.522-26.299,19.561
	c-9.315,5.043-17.974,7.563-25.972,7.563c-8.22,0-14.685-2.85-19.396-8.547c-3.176-3.945-4.766-9.311-4.766-16.109
	c0-18.516,8.711-36.656,26.134-54.406c14.138-14.465,26.465-21.699,36.983-21.699c2.849,0,5.426,0.879,7.727,2.63
	c2.849,2.3,4.272,5.317,4.272,9.042c0,5.81-2.685,12.932-8.055,21.366C763.78,303.127,747.125,315.239,724.883,321.918
	 M728.499,309.1c7.67-2.631,13.698-5.588,18.08-8.876c7.67-5.918,13.751-12.598,18.245-20.053c1.646-2.627,2.466-4.984,2.466-7.066
	c0-2.191-1.041-3.288-3.123-3.288c-2.852,0-6.903,2.135-12.162,6.411C742.577,283.788,734.745,294.744,728.499,309.1"/>
</svg>
