<?xml version="1.0" encoding="utf-8"?>
<!-- Generator: Adobe Illustrator 15.0.0, SVG Export Plug-In . SVG Version: 6.00 Build 0)  -->
<!DOCTYPE svg PUBLIC "-//W3C//DTD SVG 1.1//EN" "http://www.w3.org/Graphics/SVG/1.1/DTD/svg11.dtd">
<svg version="1.1" id="Layer_1" xmlns="http://www.w3.org/2000/svg" xmlns:xlink="http://www.w3.org/1999/xlink" x="0px" y="0px"
	 width="439.643px" height="98.685px" viewBox="0 0 439.643 98.685" enable-background="new 0 0 439.643 98.685"
	 xml:space="preserve">
<path fill="#FFFFFF" d="M112.395,83.33H86.926c0.959,3.248,5.167,4.65,8.121,4.65c3.986,0,7.012-1.18,9.375-2.952l6.644,7.456
	c-4.356,4.061-10.335,6.053-16.61,6.053c-11.516,0-21.261-5.684-21.261-18.972s10.409-19.194,20.301-19.194
	C106.415,60.371,115.495,68.934,112.395,83.33 M100.214,74.619c-0.369-5.758-12.329-5.979-13.214,0H100.214z"/>
<rect x="115.786" y="45.977" fill="#FFFFFF" width="13.436" height="51.749"/>
<rect x="134.238" y="45.977" fill="#FFFFFF" width="13.436" height="51.749"/>
<path fill="#FFFFFF" d="M177.497,97.725V77.573c0-4.504-2.584-6.055-5.094-6.055c-3.249,0-6.275,2.216-6.275,7.014v19.193h-13.436
	V61.256h12.034l0.59,3.988c3.101-3.619,7.677-4.947,11.516-4.873c7.678,0.074,14.248,4.134,14.248,17.126v20.228H177.497z"/>
<path fill="#FFFFFF" d="M232.858,83.33h-25.469c0.96,3.248,5.168,4.65,8.121,4.65c3.986,0,7.013-1.18,9.375-2.952l6.646,7.456
	c-4.356,4.061-10.336,6.053-16.611,6.053c-11.516,0-21.261-5.684-21.261-18.972s10.41-19.194,20.301-19.194
	C226.878,60.371,235.958,68.934,232.858,83.33 M220.677,74.619c-0.368-5.758-12.328-5.979-13.213,0H220.677z"/>
<path fill="#FFFFFF" d="M238.096,83.994c5.535,3.617,9.966,3.913,12.919,4.062c2.435,0,3.69-0.591,3.69-1.772
	s-1.181-1.771-3.839-1.993c-7.086-0.222-15.65-3.101-15.65-11.959c0-8.784,8.269-11.96,16.831-11.96
	c5.906,0,11.369,1.772,14.912,4.431l-5.758,8.12c-1.993-1.256-6.201-2.288-9.154-2.216c-1.919,0-3.248,0.443-3.248,1.772
	c0,0.664,0.518,1.698,2.732,1.772c7.603,0.222,16.757,2.361,16.757,12.032c0,9.006-8.194,12.401-16.979,12.401
	c-6.35,0-13.51-1.771-17.645-4.797L238.096,83.994z"/>
<path fill="#FFFFFF" d="M272.86,83.994c5.537,3.617,9.967,3.913,12.919,4.062c2.437,0,3.692-0.591,3.692-1.772
	s-1.182-1.771-3.839-1.993c-7.087-0.222-15.651-3.101-15.651-11.959c0-8.784,8.269-11.96,16.832-11.96
	c5.906,0,11.369,1.772,14.912,4.431l-5.758,8.12c-1.993-1.256-6.201-2.288-9.154-2.216c-1.919,0-3.248,0.443-3.248,1.772
	c0,0.664,0.517,1.698,2.731,1.772c7.604,0.222,16.758,2.361,16.758,12.032c0,9.006-8.194,12.401-16.979,12.401
	c-6.349,0-13.51-1.771-17.645-4.797L272.86,83.994z"/>
<path fill="#2DB24D" d="M97.054,34.649c0,3.622-2.937,6.559-6.559,6.559c-3.623,0-6.559-2.937-6.559-6.559
	c0-3.623,2.936-6.56,6.559-6.56C94.117,28.089,97.054,31.026,97.054,34.649"/>
<path fill="#82C3EB" d="M51.987,8.659c0,4.783-3.877,8.66-8.659,8.66c-4.783,0-8.66-3.877-8.66-8.66c0-4.782,3.877-8.659,8.66-8.659
	C48.11,0,51.987,3.877,51.987,8.659"/>
<path fill="#7F4D9E" d="M56.739,56.893h17.518c3.262-2.587,5.36-6.575,5.36-11.063c0-7.797-6.321-14.119-14.119-14.119
	c-7.798,0-14.12,6.322-14.12,14.119C51.378,50.318,53.477,54.306,56.739,56.893"/>
<path fill="#7F4D9E" d="M330.038,52.141c15.473,0,22.913,11.098,22.913,22.39c0,11.555-6.919,23.305-22.913,23.305h-16.124V52.141
	H330.038z M318.484,93.592h11.554c12.73,0,18.475-9.922,18.279-19.127c-0.196-8.878-5.94-18.017-18.279-18.017h-11.554V93.592z"/>
<path fill="#7F4D9E" d="M391.336,52.14v27.874c0,12.338-8.095,18.278-18.018,18.278s-18.277-5.94-18.277-18.278V52.14h4.569v27.874
	c0,8.684,5.939,14.035,13.708,14.035c6.92,0,13.447-4.504,13.447-14.035V52.14H391.336z"/>
<path fill="#7F4D9E" d="M439.643,75.119c-0.065,11.946-7.639,23.566-23.109,23.566c-15.537,0-23.174-11.62-23.174-23.631
	c0-12.861,8.355-23.697,23.174-23.697C432.004,51.423,439.707,62.911,439.643,75.119 M416.533,94.375
	c12.468,0,18.474-9.465,18.539-19.257c0-10.249-6.071-19.388-18.539-19.453c-12.271,0-18.735,8.683-18.604,19.453
	C398.06,85.106,404.064,94.375,416.533,94.375"/>
<polygon fill="#FFFFFF" points="35.649,80.478 38.387,67.054 40.621,78.001 41.719,83.39 63.045,93.623 74.15,59.041 56.507,59.041 
	54.406,77.389 47.319,44.464 29.455,44.464 23.861,74.824 "/>
<polygon fill="#FFFFFF" points="22.309,74.078 17.643,44.465 0,44.465 4.86,65.706 "/>
<polygon fill="#FFFFFF" points="23.298,77.879 23.156,78.651 23.02,78.586 22.876,77.678 5.715,69.444 6.157,71.375 11.959,96.731 
	32.334,96.731 34.907,84.114 35.03,83.51 "/>
<polygon fill="#FFFFFF" points="42.472,87.08 42.596,87.688 44.44,96.73 62.046,96.73 62.118,96.506 "/>
</svg>
